{
  "extends": [
    "tslint-eslint-rules"
  ],
  "rules": {
    "class-name": true,
    "curly": true,
    "eofline": false,
    "forin": true,
    "indent": [true, 4],
    "label-position": true,    
    "max-line-length": [true, 240],
    "no-arg": true,
    "no-console": [true,
      "debug",
      "info",
      "time",
      "timeEnd",
      "trace"
    ],
    "no-construct": true,
    "no-debugger": true,       
    "no-duplicate-variable": true,
    "no-empty": true,
    "no-eval": true,
    "no-string-literal": true,
    "no-trailing-whitespace": true,    
    "one-line": [true,
      "check-open-brace",
      "check-catch",
      "check-else",
      "check-whitespace"
    ],
    "quotemark": [true, "double"],
    "radix": true,
    "semicolon": false,
    "triple-equals": [true, "allow-null-check"],
    "typedef": [true,
      "call-signature",
      "parameter",
      "property-declaration",
      "member-variable-declaration"
    ],
    "typedef-whitespace": [false, {
      "call-signature": "space",
      "index-signature": "space",
      "parameter": "space",
      "property-declaration": "space",
      "variable-declaration": "space"
    }],
    "variable-name": false
  }
}
